%YAML 1.1
%TAG !u! tag:unity3d.com,2011:
--- !u!78 &1
TagManager:
  serializedVersion: 2
  tags:
  - ZoneTrigger
  - PassObject
  - coin
  - FootPath
  - NPC_Quest
  - South Footpath
  - North Footpath
  - East Footpath
  - West Footpath
  - Normal NPC
  - CinemachineTarget
  - Grabbable
  layers:
  - Default
  - TransparentFX
  - Ignore Raycast
  - 
  - Water
  - UI
  - Road
  - Footpath
  - NPC
  - CrossWalk
  - 
  - 
  - 
  - 
  - 
  - 
  - 
  - 
  - 
  - 
  - 
  - 
  - 
  - 
  - 
  - 
  - 
  - 
  - 
  - 
  - 
  - 
  m_SortingLayers:
  - name: Default
    uniqueID: 0
    locked: 0
